
{
  "header": {
    "event": "Allocation failed - JavaScript heap out of memory",
    "trigger": "FatalError",
    "filename": "report.20200624.050928.16326.0.001.json",
    "dumpEventTime": "2020-06-24T05:09:28Z",
    "dumpEventTimeStamp": "1592975368006",
    "processId": 16326,
    "cwd": "/root",
    "commandLine": [
      "/root/.vscode-server/bin/cd9ea6488829f560dc949a8b2fb789f3cdc05f5d/node",
      "/root/.vscode-server/bin/cd9ea6488829f560dc949a8b2fb789f3cdc05f5d/out/bootstrap-fork",
      "--type=watcherService"
    ],
    "nodejsVersion": "v12.4.0",
    "glibcVersionRuntime": "2.17",
    "glibcVersionCompiler": "2.17",
    "wordSize": 64,
    "arch": "x64",
    "platform": "linux",
    "componentVersions": {
      "node": "12.4.0",
      "v8": "7.4.288.27-node.18",
      "uv": "1.29.1",
      "zlib": "1.2.11",
      "brotli": "1.0.7",
      "ares": "1.15.0",
      "modules": "72",
      "nghttp2": "1.38.0",
      "napi": "4",
      "llhttp": "1.1.3",
      "http_parser": "2.8.0",
      "openssl": "1.1.1b",
      "cldr": "35.1",
      "icu": "64.2",
      "tz": "2019a",
      "unicode": "12.1"
    },
    "release": {
      "name": "node",
      "headersUrl": "https://nodejs.org/download/release/v12.4.0/node-v12.4.0-headers.tar.gz",
      "sourceUrl": "https://nodejs.org/download/release/v12.4.0/node-v12.4.0.tar.gz"
    },
    "osName": "Linux",
    "osRelease": "3.10.0",
    "osVersion": "#1 SMP Thu Apr 11 18:11:44 MSK 2019",
    "osMachine": "x86_64",
    "host": "qareeb.com"
  },
  "javascriptStack": {
    "message": "No stack.",
    "stack": [
      "Unavailable."
    ]
  },
  "nativeStack": [
    {
      "pc": "0x0000000000aadaf5",
      "symbol": "report::TriggerNodeReport(v8::Isolate*, node::Environment*, char const*, char const*, std::string const&, v8::Local<v8::String>) [/root/.vscode-server/bin/cd9ea6488829f560dc949a8b2fb789f3cdc05f5d/node]"
    },
    {
      "pc": "0x000000000098fec3",
      "symbol": "node::OnFatalError(char const*, char const*) [/root/.vscode-server/bin/cd9ea6488829f560dc949a8b2fb789f3cdc05f5d/node]"
    },
    {
      "pc": "0x0000000000b1552e",
      "symbol": "v8::Utils::ReportOOMFailure(v8::internal::Isolate*, char const*, bool) [/root/.vscode-server/bin/cd9ea6488829f560dc949a8b2fb789f3cdc05f5d/node]"
    },
    {
      "pc": "0x0000000000b158a9",
      "symbol": "v8::internal::V8::FatalProcessOutOfMemory(v8::internal::Isolate*, char const*, bool) [/root/.vscode-server/bin/cd9ea6488829f560dc949a8b2fb789f3cdc05f5d/node]"
    },
    {
      "pc": "0x0000000000f20105",
      "symbol": " [/root/.vscode-server/bin/cd9ea6488829f560dc949a8b2fb789f3cdc05f5d/node]"
    },
    {
      "pc": "0x0000000000f2aa6b",
      "symbol": "v8::internal::Heap::PerformGarbageCollection(v8::internal::GarbageCollector, v8::GCCallbackFlags) [/root/.vscode-server/bin/cd9ea6488829f560dc949a8b2fb789f3cdc05f5d/node]"
    },
    {
      "pc": "0x0000000000f2b787",
      "symbol": "v8::internal::Heap::CollectGarbage(v8::internal::AllocationSpace, v8::internal::GarbageCollectionReason, v8::GCCallbackFlags) [/root/.vscode-server/bin/cd9ea6488829f560dc949a8b2fb789f3cdc05f5d/node]"
    },
    {
      "pc": "0x0000000000f2e225",
      "symbol": "v8::internal::Heap::AllocateRawWithRetryOrFail(int, v8::internal::AllocationType, v8::internal::AllocationAlignment) [/root/.vscode-server/bin/cd9ea6488829f560dc949a8b2fb789f3cdc05f5d/node]"
    },
    {
      "pc": "0x0000000000ef9250",
      "symbol": "v8::internal::Factory::NewFillerObject(int, bool, v8::internal::AllocationSpace) [/root/.vscode-server/bin/cd9ea6488829f560dc949a8b2fb789f3cdc05f5d/node]"
    },
    {
      "pc": "0x00000000011cb0ce",
      "symbol": "v8::internal::Runtime_AllocateInNewSpace(int, unsigned long*, v8::internal::Isolate*) [/root/.vscode-server/bin/cd9ea6488829f560dc949a8b2fb789f3cdc05f5d/node]"
    },
    {
      "pc": "0x0000000001a93942",
      "symbol": " [/root/.vscode-server/bin/cd9ea6488829f560dc949a8b2fb789f3cdc05f5d/node]"
    }
  ],
  "javascriptHeap": {
    "totalMemory": 2163015680,
    "totalCommittedMemory": 2158955656,
    "usedMemory": 2093801224,
    "availableMemory": 69110264,
    "memoryLimit": 2197815296,
    "heapSpaces": {
      "read_only_space": {
        "memorySize": 524288,
        "committedMemory": 32024,
        "capacity": 523976,
        "used": 31712,
        "available": 492264
      },
      "new_space": {
        "memorySize": 33554432,
        "committedMemory": 31982288,
        "capacity": 16767232,
        "used": 2768576,
        "available": 13998656
      },
      "old_space": {
        "memorySize": 2059001856,
        "committedMemory": 2057208208,
        "capacity": 2024601816,
        "used": 2021549320,
        "available": 3052496
      },
      "code_space": {
        "memorySize": 688128,
        "committedMemory": 525600,
        "capacity": 500416,
        "used": 500416,
        "available": 0
      },
      "map_space": {
        "memorySize": 528384,
        "committedMemory": 488944,
        "capacity": 330960,
        "used": 330960,
        "available": 0
      },
      "large_object_space": {
        "memorySize": 68669440,
        "committedMemory": 68669440,
        "capacity": 68616688,
        "used": 68616688,
        "available": 0
      },
      "code_large_object_space": {
        "memorySize": 49152,
        "committedMemory": 49152,
        "capacity": 3552,
        "used": 3552,
        "available": 0
      },
      "new_large_object_space": {
        "memorySize": 0,
        "committedMemory": 0,
        "capacity": 16767232,
        "used": 0,
        "available": 16767232
      }
    }
  },
  "resourceUsage": {
    "userCpuSeconds": 249.464,
    "kernelCpuSeconds": 24.6843,
    "cpuConsumptionPercent": 212.518,
    "maxRss": 2713427968,
    "pageFaults": {
      "IORequired": 0,
      "IONotRequired": 1336361
    },
    "fsActivity": {
      "reads": 336,
      "writes": 8
    }
  },
  "uvthreadResourceUsage": {
    "userCpuSeconds": 118.33,
    "kernelCpuSeconds": 10.1445,
    "cpuConsumptionPercent": 99.5923,
    "fsActivity": {
      "reads": 8,
      "writes": 8
    }
  },
  "libuv": [
  ],
  "environmentVariables": {
    "XDG_SESSION_ID": "1172141",
    "SHELL": "/bin/bash",
    "SSH_CLIENT": "103.78.205.167 50104 22",
    "USER": "root",
    "VSCODE_AGENT_FOLDER": "/root/.vscode-server",
    "MAIL": "/var/mail/root",
    "PATH": "/root/.vscode-server/bin/cd9ea6488829f560dc949a8b2fb789f3cdc05f5d/bin:/usr/local/sbin:/usr/local/bin:/usr/sbin:/usr/bin",
    "PWD": "/root",
    "LANG": "en_US.UTF-8",
    "SHLVL": "3",
    "HOME": "/root",
    "LOGNAME": "root",
    "SSH_CONNECTION": "103.78.205.167 50104 185.206.135.142 22",
    "LESSOPEN": "||/usr/bin/lesspipe.sh %s",
    "XDG_RUNTIME_DIR": "/run/user/0",
    "LE_WORKING_DIR": "/root/.acme.sh",
    "HISTTIMEFORMAT": "%F %T ",
    "_": "/root/.vscode-server/bin/cd9ea6488829f560dc949a8b2fb789f3cdc05f5d/node",
    "VSCODE_INJECT_NODE_MODULE_LOOKUP_PATH": "/root/.vscode-server/bin/cd9ea6488829f560dc949a8b2fb789f3cdc05f5d/remote/node_modules",
    "VSCODE_LOGS": "/root/.vscode-server/data/logs/20200624T045229",
    "VSCODE_PARENT_PID": "15001",
    "AMD_ENTRYPOINT": "vs/platform/files/node/watcher/unix/watcherApp",
    "PIPE_LOGGING": "true",
    "VERBOSE_LOGGING": "true"
  },
  "userLimits": {
    "core_file_size_blocks": {
      "soft": 0,
      "hard": 0
    },
    "data_seg_size_kbytes": {
      "soft": "unlimited",
      "hard": "unlimited"
    },
    "file_size_blocks": {
      "soft": "unlimited",
      "hard": "unlimited"
    },
    "max_locked_memory_bytes": {
      "soft": 65536,
      "hard": 65536
    },
    "max_memory_size_kbytes": {
      "soft": "unlimited",
      "hard": "unlimited"
    },
    "open_files": {
      "soft": 524290,
      "hard": 524290
    },
    "stack_size_bytes": {
      "soft": 8388608,
      "hard": "unlimited"
    },
    "cpu_time_seconds": {
      "soft": "unlimited",
      "hard": "unlimited"
    },
    "max_user_processes": {
      "soft": 62987,
      "hard": 62987
    },
    "virtual_memory_kbytes": {
      "soft": "unlimited",
      "hard": "unlimited"
    }
  },
  "sharedObjects": [
    "/lib64/libdl.so.2",
    "/lib64/librt.so.1",
    "/lib64/libstdc++.so.6",
    "/lib64/libm.so.6",
    "/lib64/libgcc_s.so.1",
    "/lib64/libpthread.so.0",
    "/lib64/libc.so.6",
    "/lib64/ld-linux-x86-64.so.2"
  ]
}