<?xml version="1.0" encoding="UTF-8"?>
<svg width="24px" height="24px" viewBox="0 0 24 24" version="1.1" xmlns="http://www.w3.org/2000/svg" xmlns:xlink="http://www.w3.org/1999/xlink">
    <!-- Generator: sketchtool 52.6 (67491) - http://www.bohemiancoding.com/sketch -->
    <title>9D68552E-0091-4DDB-97B8-28273C48C82C</title>
    <desc>Created with sketchtool.</desc>
    <g id="Page-1" stroke="none" stroke-width="1" fill="none" fill-rule="evenodd">
        <g id="Menu" transform="translate(-104.000000, -173.000000)" fill="#FFFFFF" fill-rule="nonzero">
            <g id="account" transform="translate(104.000000, 173.000000)">
                <path d="M1.63424829e-13,21.3628042 C1.63424829e-13,20.2198813 0.283453701,19.162519 0.850637104,18.1912691 C1.41782051,17.2197433 2.18676112,16.4505267 3.15828695,15.8836193 C4.12953678,15.3167119 5.18689912,15.0329822 6.32954598,15.0329822 L17.4063204,15.0329822 C18.5492433,15.0329822 19.6063296,15.3164359 20.5778555,15.8836193 C21.5491053,16.4508027 22.3185979,17.2197433 22.8855053,18.1912691 C23.4526887,19.162519 23.7361424,20.2198813 23.7361424,21.3628042 L23.7361424,24 L22.1538249,24 L22.1538249,21.3628042 C22.1538249,20.501127 21.9407516,19.7078982 21.5143291,18.9825659 C21.0879065,18.2572335 20.5121671,17.6814941 19.7868347,17.2550715 C19.0615024,16.828649 18.2682736,16.6155757 17.4065964,16.6155757 L6.32954598,16.6155757 C5.46786881,16.6155757 4.67464005,16.828649 3.9493077,17.2550715 C3.22397534,17.6812181 2.64823589,18.2572335 2.22181333,18.9825659 C1.79539077,19.7078982 1.58231749,20.501127 1.58231749,21.3628042 L1.58231749,24 L1.63424829e-13,24 L1.63424829e-13,21.3628042 Z M8.56488339,12.2967018 C7.55830535,11.7032982 6.75817655,10.9034454 6.16477299,9.89686738 C5.57136943,8.89028934 5.27466765,7.78931874 5.27466765,6.59367956 C5.27466765,5.39804039 5.57136943,4.29706978 6.16477299,3.29049174 C6.75817655,2.2839137 7.55802935,1.4837849 8.56488339,0.890381342 C9.57118543,0.296977782 10.672432,0 11.8680712,0 C13.0637104,0 14.164681,0.296977782 15.171535,0.890381342 C16.1778371,1.4837849 16.9779659,2.2839137 17.5713694,3.29049174 C18.164773,4.29706978 18.4614748,5.39831639 18.4614748,6.59367956 C18.4614748,7.78931874 18.165049,8.89028934 17.5713694,9.89686738 C16.9779659,10.9034454 16.1778371,11.7032982 15.171535,12.2967018 C14.164957,12.8901053 13.0637104,13.1868071 11.8680712,13.1868071 C10.672432,13.1868071 9.57118543,12.8903813 8.56488339,12.2967018 Z M14.3802383,10.9318736 C15.1494549,10.4833709 15.7583145,9.87478725 16.2065412,9.10557063 C16.6550439,8.33635402 16.8791573,7.49896499 16.8791573,6.59340356 C16.8791573,5.68811813 16.6550439,4.8507291 16.2065412,4.08123649 C15.7583145,3.31201987 15.1494549,2.70316022 14.3802383,2.25493353 C13.6107457,1.80670684 12.7733566,1.5825935 11.8680712,1.5825935 C10.9625098,1.5825935 10.1253968,1.80670684 9.35590414,2.25520953 C8.58641152,2.70343622 7.97782787,3.31229587 7.52960118,4.08151249 C7.08109849,4.85100511 6.85698514,5.68811813 6.85698514,6.59367956 C6.85698514,7.499241 7.08109849,8.33663002 7.52960118,9.10584664 C7.97782787,9.87533925 8.58668752,10.4839229 9.35590414,10.9321496 C10.1251208,11.3806523 10.9622338,11.6047656 11.8680712,11.6047656 C12.7733566,11.6044896 13.6107457,11.3803763 14.3802383,10.9318736 Z"></path>
            </g>
        </g>
    </g>
</svg>