<?xml version="1.0" encoding="UTF-8"?>
<svg width="202px" height="55px" viewBox="0 0 202 55" version="1.1" xmlns="http://www.w3.org/2000/svg" xmlns:xlink="http://www.w3.org/1999/xlink">
    <!-- Generator: sketchtool 52.6 (67491) - http://www.bohemiancoding.com/sketch -->
    <title>B128B6A4-BFD4-4899-871A-40F15E499D64</title>
    <desc>Created with sketchtool.</desc>
    <defs>
        <polygon id="path-1" points="0 1.19836478 199.665409 1.19836478 199.665409 54.087673 0 54.087673"></polygon>
    </defs>
    <g id="Page-1" stroke="none" stroke-width="1" fill="none" fill-rule="evenodd">
        <g id="Qareeb-Mobile-Landing-Page" transform="translate(-59.000000, -4604.000000)">
            <g id="app-store-btn" transform="translate(60.000000, 4603.000000)">
                <g>
                    <g id="Group-3" transform="translate(0.000000, 0.059748)">
                        <mask id="mask-2" fill="white">
                            <use xlink:href="#path-1"></use>
                        </mask>
                        <g id="Clip-2"></g>
                        <path d="M192.13044,1.19836478 L7.5354717,1.19836478 C3.37069182,1.19836478 -0.000377358491,4.57069182 -0.000377358491,8.73044025 L-0.000377358491,46.5568553 C-0.000377358491,50.7140881 3.37320755,54.087673 7.5354717,54.087673 L192.13044,54.087673 C196.29522,54.087673 199.666289,50.7153459 199.666289,46.5568553 L199.666289,8.73044025 C199.666289,4.57194969 196.292704,1.19836478 192.13044,1.19836478 M192.13044,2.45622642 C195.592075,2.45622642 198.408428,5.27006289 198.408428,8.73044025 L198.408428,46.5568553 C198.408428,50.0159748 195.592075,52.8298113 192.13044,52.8298113 L7.5354717,52.8298113 C4.07383648,52.8298113 1.25748428,50.0159748 1.25748428,46.5568553 L1.25748428,8.73044025 C1.25748428,5.27006289 4.07383648,2.45622642 7.5354717,2.45622642 L192.13044,2.45622642" id="Fill-1" fill="#FFFFFF" mask="url(#mask-2)"></path>
                    </g>
                    <path d="M59.6459119,24.4437736 C62.2459119,24.4437736 63.8786164,22.5846541 63.8786164,20.2626415 C63.8786164,17.9645283 62.2459119,16.067673 59.6459119,16.067673 L56.9716981,16.067673 L56.9716981,24.4437736 L59.6459119,24.4437736 Z M59.6459119,23.7896855 L57.6874214,23.7896855 L57.6874214,16.7205031 L59.6459119,16.7205031 C61.8698113,16.7205031 63.1251572,18.3028931 63.1251572,20.2626415 C63.1251572,22.2211321 61.8559748,23.7896855 59.6459119,23.7896855 Z M69.4169811,24.594717 C71.8647799,24.594717 73.4849057,22.7104403 73.4849057,20.2626415 C73.4849057,17.8135849 71.8647799,15.9293082 69.4169811,15.9293082 C66.9553459,15.9293082 65.3477987,17.8135849 65.3477987,20.2626415 C65.3477987,22.7104403 66.9553459,24.594717 69.4169811,24.594717 Z M69.4169811,23.9418868 C67.3943396,23.9418868 66.1012579,22.3720755 66.1012579,20.2626415 C66.1012579,18.1393711 67.3943396,16.5821384 69.4169811,16.5821384 C71.4257862,16.5821384 72.7314465,18.1393711 72.7314465,20.2626415 C72.7314465,22.3720755 71.4257862,23.9418868 69.4169811,23.9418868 Z M82.4773585,24.4437736 L84.863522,16.067673 L84.0597484,16.067673 L82.0371069,23.4387421 L79.990566,16.067673 L79.3377358,16.067673 L77.2786164,23.4387421 L75.2559748,16.067673 L74.4522013,16.067673 L76.8509434,24.4437736 L77.654717,24.4437736 L79.6647799,17.2475472 L81.6735849,24.4437736 L82.4773585,24.4437736 Z M92.8383648,24.4437736 L92.8383648,16.067673 L92.1213836,16.067673 L92.1213836,23.1620126 L86.8735849,16.067673 L86.1440252,16.067673 L86.1440252,24.4437736 L86.8597484,24.4437736 L86.8597484,17.2475472 L92.1352201,24.4437736 L92.8383648,24.4437736 Z M99.5314465,24.4437736 L99.5314465,23.7896855 L95.4748428,23.7896855 L95.4748428,16.067673 L94.7465409,16.067673 L94.7465409,24.4437736 L99.5314465,24.4437736 Z M104.755346,24.594717 C107.204403,24.594717 108.824528,22.7104403 108.824528,20.2626415 C108.824528,17.8135849 107.204403,15.9293082 104.755346,15.9293082 C102.294969,15.9293082 100.686164,17.8135849 100.686164,20.2626415 C100.686164,22.7104403 102.294969,24.594717 104.755346,24.594717 Z M104.755346,23.9418868 C102.733962,23.9418868 101.440881,22.3720755 101.440881,20.2626415 C101.440881,18.1393711 102.733962,16.5821384 104.755346,16.5821384 C106.765409,16.5821384 108.071069,18.1393711 108.071069,20.2626415 C108.071069,22.3720755 106.765409,23.9418868 104.755346,23.9418868 Z M117.489937,24.4437736 L114.061006,16.067673 L113.17044,16.067673 L109.741509,24.4437736 L110.57044,24.4437736 L111.399371,22.3833962 L115.832075,22.3833962 L116.661006,24.4437736 L117.489937,24.4437736 Z M115.59434,21.7318239 L111.637107,21.7318239 L113.622013,16.8337107 L115.59434,21.7318239 Z M121.395597,24.4437736 C123.995597,24.4437736 125.628302,22.5846541 125.628302,20.2626415 C125.628302,17.9645283 123.995597,16.067673 121.395597,16.067673 L118.720126,16.067673 L118.720126,24.4437736 L121.395597,24.4437736 Z M121.395597,23.7896855 L119.437107,23.7896855 L119.437107,16.7205031 L121.395597,16.7205031 C123.618239,16.7205031 124.873585,18.3028931 124.873585,20.2626415 C124.873585,22.2211321 123.60566,23.7896855 121.395597,23.7896855 Z M131.379245,24.4437736 L131.379245,20.4752201 L135.887421,20.4752201 L135.887421,19.8223899 L131.379245,19.8223899 L131.379245,16.7205031 L135.975472,16.7205031 L135.975472,16.067673 L130.663522,16.067673 L130.663522,24.4437736 L131.379245,24.4437736 Z M143.24717,24.4437736 L140.82327,20.9267925 C142.079874,20.8777358 143.146541,20.0362264 143.146541,18.5167296 C143.146541,16.9833962 142.040881,16.067673 140.596855,16.067673 L137.471069,16.067673 L137.471069,24.4437736 L138.185535,24.4437736 L138.185535,20.9771069 L140.032075,20.9771069 L142.380503,24.4437736 L143.24717,24.4437736 Z M140.53522,20.3255346 L138.185535,20.3255346 L138.185535,16.7205031 L140.53522,16.7205031 C141.652201,16.7205031 142.393082,17.4613836 142.393082,18.5167296 C142.393082,19.5708176 141.652201,20.3255346 140.53522,20.3255346 Z M148.684906,24.594717 C151.133962,24.594717 152.754088,22.7104403 152.754088,20.2626415 C152.754088,17.8135849 151.133962,15.9293082 148.684906,15.9293082 C146.22327,15.9293082 144.615723,17.8135849 144.615723,20.2626415 C144.615723,22.7104403 146.22327,24.594717 148.684906,24.594717 Z M148.684906,23.9418868 C146.663522,23.9418868 145.369182,22.3720755 145.369182,20.2626415 C145.369182,18.1393711 146.663522,16.5821384 148.684906,16.5821384 C150.693711,16.5821384 152.000629,18.1393711 152.000629,20.2626415 C152.000629,22.3720755 150.693711,23.9418868 148.684906,23.9418868 Z M162.361635,24.4437736 L162.361635,16.067673 L161.281132,16.067673 L158.442138,23.0374843 L155.591824,16.067673 L154.525157,16.067673 L154.525157,24.4437736 L155.240881,24.4437736 L155.240881,16.9720755 L158.305031,24.4437736 L158.580503,24.4437736 L161.633333,16.9720755 L161.633333,24.4437736 L162.361635,24.4437736 Z M64.5691824,39.3569811 L61.3415094,30.9796226 L59.1062893,30.9796226 L55.8786164,39.3569811 L57.9,39.3569811 L58.4283019,37.9381132 L62.0194969,37.9381132 L62.5477987,39.3569811 L64.5691824,39.3569811 Z M61.5301887,36.367044 L58.9176101,36.367044 L60.2232704,32.7632704 L61.5301887,36.367044 Z M67.1314465,39.3569811 L67.1314465,36.367044 L69.2660377,36.367044 C71.0735849,36.367044 72.0786164,35.1368553 72.0786164,33.6802516 C72.0786164,32.2110692 71.0874214,30.9796226 69.2660377,30.9796226 L65.3477987,30.9796226 L65.3477987,39.3569811 L67.1314465,39.3569811 Z M69.0144654,34.7972327 L67.1314465,34.7972327 L67.1314465,32.549434 L69.0144654,32.549434 C69.7176101,32.549434 70.2584906,32.9771069 70.2584906,33.6802516 C70.2584906,34.3720755 69.7176101,34.7972327 69.0144654,34.7972327 Z M74.9792453,39.3569811 L74.9792453,36.367044 L77.1150943,36.367044 C78.9238994,36.367044 79.927673,35.1368553 79.927673,33.6802516 C79.927673,32.2110692 78.9352201,30.9796226 77.1150943,30.9796226 L73.1968553,30.9796226 L73.1968553,39.3569811 L74.9792453,39.3569811 Z M76.863522,34.7972327 L74.9792453,34.7972327 L74.9792453,32.549434 L76.863522,32.549434 C77.5666667,32.549434 78.1075472,32.9771069 78.1075472,33.6802516 C78.1075472,34.3720755 77.5666667,34.7972327 76.863522,34.7972327 Z M86.3075472,39.3569811 L86.3075472,37.7871698 L82.7654088,37.7871698 L82.7654088,30.9796226 L80.9704403,30.9796226 L80.9704403,39.3569811 L86.3075472,39.3569811 Z M93.4408805,39.3569811 L93.4408805,37.7871698 L89.2962264,37.7871698 L89.2962264,35.8789937 L93.3528302,35.8789937 L93.3528302,34.3091824 L89.2962264,34.3091824 L89.2962264,32.549434 L93.4408805,32.549434 L93.4408805,30.9796226 L87.5125786,30.9796226 L87.5125786,39.3569811 L93.4408805,39.3569811 Z M105.873585,39.3569811 L102.645912,30.9796226 L100.410692,30.9796226 L97.1830189,39.3569811 L99.2056604,39.3569811 L99.7327044,37.9381132 L103.323899,37.9381132 L103.852201,39.3569811 L105.873585,39.3569811 Z M102.834591,36.367044 L100.222013,36.367044 L101.527673,32.7632704 L102.834591,36.367044 Z M108.435849,39.3569811 L108.435849,36.367044 L110.57044,36.367044 C112.377987,36.367044 113.383019,35.1368553 113.383019,33.6802516 C113.383019,32.2110692 112.391824,30.9796226 110.57044,30.9796226 L106.652201,30.9796226 L106.652201,39.3569811 L108.435849,39.3569811 Z M110.318868,34.7972327 L108.435849,34.7972327 L108.435849,32.549434 L110.318868,32.549434 C111.022013,32.549434 111.561635,32.9771069 111.561635,33.6802516 C111.561635,34.3720755 111.022013,34.7972327 110.318868,34.7972327 Z M116.284906,39.3569811 L116.284906,36.367044 L118.419497,36.367044 C120.228302,36.367044 121.232075,35.1368553 121.232075,33.6802516 C121.232075,32.2110692 120.239623,30.9796226 118.419497,30.9796226 L114.501258,30.9796226 L114.501258,39.3569811 L116.284906,39.3569811 Z M118.167925,34.7972327 L116.284906,34.7972327 L116.284906,32.549434 L118.167925,32.549434 C118.871069,32.549434 119.41195,32.9771069 119.41195,33.6802516 C119.41195,34.3720755 118.871069,34.7972327 118.167925,34.7972327 Z M128.566667,39.5079245 C130.814465,39.5079245 131.920126,38.3532075 131.920126,36.8198742 C131.920126,33.6940881 127.110063,34.5859119 127.110063,33.2664151 C127.110063,32.7632704 127.536478,32.4362264 128.289937,32.4362264 C129.144025,32.4362264 130.048428,32.7255346 130.726415,33.3544654 L131.718868,32.0223899 C130.889937,31.2563522 129.784277,30.8550943 128.453459,30.8550943 C126.481132,30.8550943 125.276101,32.0110692 125.276101,33.4047799 C125.276101,36.5569811 130.098742,35.5393711 130.098742,36.9959748 C130.098742,37.485283 129.634591,37.9255346 128.642138,37.9255346 C127.486164,37.9255346 126.57044,37.3984906 125.979245,36.7833962 L125.000629,38.1758491 C125.790566,38.9683019 126.946541,39.5079245 128.566667,39.5079245 Z M136.842138,39.3569811 L136.842138,32.549434 L139.278616,32.549434 L139.278616,30.9796226 L132.598113,30.9796226 L132.598113,32.549434 L135.045912,32.549434 L135.045912,39.3569811 L136.842138,39.3569811 Z M144.401887,39.5079245 C146.926415,39.5079245 148.772956,37.6991195 148.772956,35.1745912 C148.772956,32.6500629 146.926415,30.8425157 144.401887,30.8425157 C141.866038,30.8425157 140.019497,32.6500629 140.019497,35.1745912 C140.019497,37.6991195 141.866038,39.5079245 144.401887,39.5079245 Z M144.401887,37.9255346 C142.845912,37.9255346 141.853459,36.7330818 141.853459,35.1745912 C141.853459,33.6047799 142.845912,32.4249057 144.401887,32.4249057 C145.946541,32.4249057 146.938994,33.6047799 146.938994,35.1745912 C146.938994,36.7330818 145.946541,37.9255346 144.401887,37.9255346 Z M156.82327,39.3569811 L154.926415,36.167044 C155.830818,35.9532075 156.772956,35.1506918 156.772956,33.6802516 C156.772956,32.1230189 155.692453,30.9796226 153.946541,30.9796226 L150.028302,30.9796226 L150.028302,39.3569811 L151.81195,39.3569811 L151.81195,36.3808805 L153.118868,36.3808805 L154.762893,39.3569811 L156.82327,39.3569811 Z M153.696226,34.8110692 L151.81195,34.8110692 L151.81195,32.549434 L153.696226,32.549434 C154.399371,32.549434 154.938994,32.9771069 154.938994,33.667673 C154.938994,34.3833962 154.399371,34.8110692 153.696226,34.8110692 Z M164.030818,39.3569811 L164.030818,37.7871698 L159.887421,37.7871698 L159.887421,35.8789937 L163.944025,35.8789937 L163.944025,34.3091824 L159.887421,34.3091824 L159.887421,32.549434 L164.030818,32.549434 L164.030818,30.9796226 L158.103774,30.9796226 L158.103774,39.3569811 L164.030818,39.3569811 Z" id="Fill-4" fill="#FFFFFF"></path>
                    <path d="M30.414717,19.2859119 C29.5166038,20.4368553 27.9681761,21.3286792 26.4725786,21.2821384 C26.1996226,19.7978616 26.9015094,18.2720755 27.750566,17.2431447 C28.6851572,16.1098113 30.2889308,15.2393711 31.66,15.1450314 C31.8901887,16.694717 31.2537107,18.2116981 30.414717,19.2859119 M37.8260377,33.8594969 C37.2260377,35.1877987 36.9379874,35.7802516 36.1644025,36.9538365 C35.0851572,38.5928302 33.5644025,40.6318239 31.6801258,40.649434 C30.0046541,40.6645283 29.5757233,39.5613836 27.3027673,39.5752201 C25.0310692,39.5877987 24.5555975,40.6683019 22.8813836,40.6532075 C20.9971069,40.6368553 19.5555975,38.7940881 18.4763522,37.1563522 C15.4587421,32.5739623 15.1430189,27.1966038 17.0046541,24.3387421 C18.3266667,22.3072956 20.4122013,21.1186164 22.3744654,21.1186164 C24.3719497,21.1186164 25.6285535,22.2104403 27.2788679,22.2104403 C28.8813836,22.2104403 29.8574843,21.1161006 32.1669182,21.1161006 C33.9115723,21.1161006 35.7618868,22.0657862 37.0801258,23.7047799 C32.7618868,26.0645283 33.4625157,32.2142138 37.8260377,33.8594969" id="Fill-6" fill="#FFFFFF"></path>
                </g>
            </g>
        </g>
    </g>
</svg>