<?xml version="1.0" encoding="UTF-8"?>
<svg width="202px" height="54px" viewBox="0 0 202 54" version="1.1" xmlns="http://www.w3.org/2000/svg" xmlns:xlink="http://www.w3.org/1999/xlink">
    <!-- Generator: sketchtool 49.3 (51167) - http://www.bohemiancoding.com/sketch -->
    <title>BE7EAA7D-AE1C-4518-B352-A6541EF7941E</title>
    <desc>Created with sketchtool.</desc>
    <defs></defs>
    <g id="Page-1" stroke="none" stroke-width="1" fill="none" fill-rule="evenodd">
        <g id="Qareeb-Landing-Page" transform="translate(-164.000000, -716.000000)">
            <g id="app-store" transform="translate(165.007225, 716.000000)">
                <g id="app-store-btn">
                    <path d="M7.5354717,0.258113208 C3.37069182,0.258113208 -0.000377358491,3.63044025 -0.000377358491,7.79018868 L-0.000377358491,45.6166038 C-0.000377358491,49.7738365 3.37320755,53.1474214 7.5354717,53.1474214 L192.13044,53.1474214 C196.29522,53.1474214 199.666289,49.7750943 199.666289,45.6166038 L199.666289,7.79018868 C199.666289,3.63169811 196.292704,0.258113208 192.13044,0.258113208 L7.5354717,0.258113208 Z" id="btn" fill="#2B3C46"></path>
                    <path d="M57.6459119,23.4437736 C60.2459119,23.4437736 61.8786164,21.5846541 61.8786164,19.2626415 C61.8786164,16.9645283 60.2459119,15.067673 57.6459119,15.067673 L54.9716981,15.067673 L54.9716981,23.4437736 L57.6459119,23.4437736 Z M57.6459119,22.7896855 L55.6874214,22.7896855 L55.6874214,15.7205031 L57.6459119,15.7205031 C59.8698113,15.7205031 61.1251572,17.3028931 61.1251572,19.2626415 C61.1251572,21.2211321 59.8559748,22.7896855 57.6459119,22.7896855 Z M67.4169811,23.594717 C69.8647799,23.594717 71.4849057,21.7104403 71.4849057,19.2626415 C71.4849057,16.8135849 69.8647799,14.9293082 67.4169811,14.9293082 C64.9553459,14.9293082 63.3477987,16.8135849 63.3477987,19.2626415 C63.3477987,21.7104403 64.9553459,23.594717 67.4169811,23.594717 Z M67.4169811,22.9418868 C65.3943396,22.9418868 64.1012579,21.3720755 64.1012579,19.2626415 C64.1012579,17.1393711 65.3943396,15.5821384 67.4169811,15.5821384 C69.4257862,15.5821384 70.7314465,17.1393711 70.7314465,19.2626415 C70.7314465,21.3720755 69.4257862,22.9418868 67.4169811,22.9418868 Z M80.4773585,23.4437736 L82.863522,15.067673 L82.0597484,15.067673 L80.0371069,22.4387421 L77.990566,15.067673 L77.3377358,15.067673 L75.2786164,22.4387421 L73.2559748,15.067673 L72.4522013,15.067673 L74.8509434,23.4437736 L75.654717,23.4437736 L77.6647799,16.2475472 L79.6735849,23.4437736 L80.4773585,23.4437736 Z M90.8383648,23.4437736 L90.8383648,15.067673 L90.1213836,15.067673 L90.1213836,22.1620126 L84.8735849,15.067673 L84.1440252,15.067673 L84.1440252,23.4437736 L84.8597484,23.4437736 L84.8597484,16.2475472 L90.1352201,23.4437736 L90.8383648,23.4437736 Z M97.5314465,23.4437736 L97.5314465,22.7896855 L93.4748428,22.7896855 L93.4748428,15.067673 L92.7465409,15.067673 L92.7465409,23.4437736 L97.5314465,23.4437736 Z M102.755346,23.594717 C105.204403,23.594717 106.824528,21.7104403 106.824528,19.2626415 C106.824528,16.8135849 105.204403,14.9293082 102.755346,14.9293082 C100.294969,14.9293082 98.6861635,16.8135849 98.6861635,19.2626415 C98.6861635,21.7104403 100.294969,23.594717 102.755346,23.594717 Z M102.755346,22.9418868 C100.733962,22.9418868 99.4408805,21.3720755 99.4408805,19.2626415 C99.4408805,17.1393711 100.733962,15.5821384 102.755346,15.5821384 C104.765409,15.5821384 106.071069,17.1393711 106.071069,19.2626415 C106.071069,21.3720755 104.765409,22.9418868 102.755346,22.9418868 Z M115.489937,23.4437736 L112.061006,15.067673 L111.17044,15.067673 L107.741509,23.4437736 L108.57044,23.4437736 L109.399371,21.3833962 L113.832075,21.3833962 L114.661006,23.4437736 L115.489937,23.4437736 Z M113.59434,20.7318239 L109.637107,20.7318239 L111.622013,15.8337107 L113.59434,20.7318239 Z M119.395597,23.4437736 C121.995597,23.4437736 123.628302,21.5846541 123.628302,19.2626415 C123.628302,16.9645283 121.995597,15.067673 119.395597,15.067673 L116.720126,15.067673 L116.720126,23.4437736 L119.395597,23.4437736 Z M119.395597,22.7896855 L117.437107,22.7896855 L117.437107,15.7205031 L119.395597,15.7205031 C121.618239,15.7205031 122.873585,17.3028931 122.873585,19.2626415 C122.873585,21.2211321 121.60566,22.7896855 119.395597,22.7896855 Z M129.379245,23.4437736 L129.379245,19.4752201 L133.887421,19.4752201 L133.887421,18.8223899 L129.379245,18.8223899 L129.379245,15.7205031 L133.975472,15.7205031 L133.975472,15.067673 L128.663522,15.067673 L128.663522,23.4437736 L129.379245,23.4437736 Z M141.24717,23.4437736 L138.82327,19.9267925 C140.079874,19.8777358 141.146541,19.0362264 141.146541,17.5167296 C141.146541,15.9833962 140.040881,15.067673 138.596855,15.067673 L135.471069,15.067673 L135.471069,23.4437736 L136.185535,23.4437736 L136.185535,19.9771069 L138.032075,19.9771069 L140.380503,23.4437736 L141.24717,23.4437736 Z M138.53522,19.3255346 L136.185535,19.3255346 L136.185535,15.7205031 L138.53522,15.7205031 C139.652201,15.7205031 140.393082,16.4613836 140.393082,17.5167296 C140.393082,18.5708176 139.652201,19.3255346 138.53522,19.3255346 Z M146.684906,23.594717 C149.133962,23.594717 150.754088,21.7104403 150.754088,19.2626415 C150.754088,16.8135849 149.133962,14.9293082 146.684906,14.9293082 C144.22327,14.9293082 142.615723,16.8135849 142.615723,19.2626415 C142.615723,21.7104403 144.22327,23.594717 146.684906,23.594717 Z M146.684906,22.9418868 C144.663522,22.9418868 143.369182,21.3720755 143.369182,19.2626415 C143.369182,17.1393711 144.663522,15.5821384 146.684906,15.5821384 C148.693711,15.5821384 150.000629,17.1393711 150.000629,19.2626415 C150.000629,21.3720755 148.693711,22.9418868 146.684906,22.9418868 Z M160.361635,23.4437736 L160.361635,15.067673 L159.281132,15.067673 L156.442138,22.0374843 L153.591824,15.067673 L152.525157,15.067673 L152.525157,23.4437736 L153.240881,23.4437736 L153.240881,15.9720755 L156.305031,23.4437736 L156.580503,23.4437736 L159.633333,15.9720755 L159.633333,23.4437736 L160.361635,23.4437736 Z M62.5691824,38.3569811 L59.3415094,29.9796226 L57.1062893,29.9796226 L53.8786164,38.3569811 L55.9,38.3569811 L56.4283019,36.9381132 L60.0194969,36.9381132 L60.5477987,38.3569811 L62.5691824,38.3569811 Z M59.5301887,35.367044 L56.9176101,35.367044 L58.2232704,31.7632704 L59.5301887,35.367044 Z M65.1314465,38.3569811 L65.1314465,35.367044 L67.2660377,35.367044 C69.0735849,35.367044 70.0786164,34.1368553 70.0786164,32.6802516 C70.0786164,31.2110692 69.0874214,29.9796226 67.2660377,29.9796226 L63.3477987,29.9796226 L63.3477987,38.3569811 L65.1314465,38.3569811 Z M67.0144654,33.7972327 L65.1314465,33.7972327 L65.1314465,31.549434 L67.0144654,31.549434 C67.7176101,31.549434 68.2584906,31.9771069 68.2584906,32.6802516 C68.2584906,33.3720755 67.7176101,33.7972327 67.0144654,33.7972327 Z M72.9792453,38.3569811 L72.9792453,35.367044 L75.1150943,35.367044 C76.9238994,35.367044 77.927673,34.1368553 77.927673,32.6802516 C77.927673,31.2110692 76.9352201,29.9796226 75.1150943,29.9796226 L71.1968553,29.9796226 L71.1968553,38.3569811 L72.9792453,38.3569811 Z M74.863522,33.7972327 L72.9792453,33.7972327 L72.9792453,31.549434 L74.863522,31.549434 C75.5666667,31.549434 76.1075472,31.9771069 76.1075472,32.6802516 C76.1075472,33.3720755 75.5666667,33.7972327 74.863522,33.7972327 Z M84.3075472,38.3569811 L84.3075472,36.7871698 L80.7654088,36.7871698 L80.7654088,29.9796226 L78.9704403,29.9796226 L78.9704403,38.3569811 L84.3075472,38.3569811 Z M91.4408805,38.3569811 L91.4408805,36.7871698 L87.2962264,36.7871698 L87.2962264,34.8789937 L91.3528302,34.8789937 L91.3528302,33.3091824 L87.2962264,33.3091824 L87.2962264,31.549434 L91.4408805,31.549434 L91.4408805,29.9796226 L85.5125786,29.9796226 L85.5125786,38.3569811 L91.4408805,38.3569811 Z M103.873585,38.3569811 L100.645912,29.9796226 L98.4106918,29.9796226 L95.1830189,38.3569811 L97.2056604,38.3569811 L97.7327044,36.9381132 L101.323899,36.9381132 L101.852201,38.3569811 L103.873585,38.3569811 Z M100.834591,35.367044 L98.2220126,35.367044 L99.527673,31.7632704 L100.834591,35.367044 Z M106.435849,38.3569811 L106.435849,35.367044 L108.57044,35.367044 C110.377987,35.367044 111.383019,34.1368553 111.383019,32.6802516 C111.383019,31.2110692 110.391824,29.9796226 108.57044,29.9796226 L104.652201,29.9796226 L104.652201,38.3569811 L106.435849,38.3569811 Z M108.318868,33.7972327 L106.435849,33.7972327 L106.435849,31.549434 L108.318868,31.549434 C109.022013,31.549434 109.561635,31.9771069 109.561635,32.6802516 C109.561635,33.3720755 109.022013,33.7972327 108.318868,33.7972327 Z M114.284906,38.3569811 L114.284906,35.367044 L116.419497,35.367044 C118.228302,35.367044 119.232075,34.1368553 119.232075,32.6802516 C119.232075,31.2110692 118.239623,29.9796226 116.419497,29.9796226 L112.501258,29.9796226 L112.501258,38.3569811 L114.284906,38.3569811 Z M116.167925,33.7972327 L114.284906,33.7972327 L114.284906,31.549434 L116.167925,31.549434 C116.871069,31.549434 117.41195,31.9771069 117.41195,32.6802516 C117.41195,33.3720755 116.871069,33.7972327 116.167925,33.7972327 Z M126.566667,38.5079245 C128.814465,38.5079245 129.920126,37.3532075 129.920126,35.8198742 C129.920126,32.6940881 125.110063,33.5859119 125.110063,32.2664151 C125.110063,31.7632704 125.536478,31.4362264 126.289937,31.4362264 C127.144025,31.4362264 128.048428,31.7255346 128.726415,32.3544654 L129.718868,31.0223899 C128.889937,30.2563522 127.784277,29.8550943 126.453459,29.8550943 C124.481132,29.8550943 123.276101,31.0110692 123.276101,32.4047799 C123.276101,35.5569811 128.098742,34.5393711 128.098742,35.9959748 C128.098742,36.485283 127.634591,36.9255346 126.642138,36.9255346 C125.486164,36.9255346 124.57044,36.3984906 123.979245,35.7833962 L123.000629,37.1758491 C123.790566,37.9683019 124.946541,38.5079245 126.566667,38.5079245 Z M134.842138,38.3569811 L134.842138,31.549434 L137.278616,31.549434 L137.278616,29.9796226 L130.598113,29.9796226 L130.598113,31.549434 L133.045912,31.549434 L133.045912,38.3569811 L134.842138,38.3569811 Z M142.401887,38.5079245 C144.926415,38.5079245 146.772956,36.6991195 146.772956,34.1745912 C146.772956,31.6500629 144.926415,29.8425157 142.401887,29.8425157 C139.866038,29.8425157 138.019497,31.6500629 138.019497,34.1745912 C138.019497,36.6991195 139.866038,38.5079245 142.401887,38.5079245 Z M142.401887,36.9255346 C140.845912,36.9255346 139.853459,35.7330818 139.853459,34.1745912 C139.853459,32.6047799 140.845912,31.4249057 142.401887,31.4249057 C143.946541,31.4249057 144.938994,32.6047799 144.938994,34.1745912 C144.938994,35.7330818 143.946541,36.9255346 142.401887,36.9255346 Z M154.82327,38.3569811 L152.926415,35.167044 C153.830818,34.9532075 154.772956,34.1506918 154.772956,32.6802516 C154.772956,31.1230189 153.692453,29.9796226 151.946541,29.9796226 L148.028302,29.9796226 L148.028302,38.3569811 L149.81195,38.3569811 L149.81195,35.3808805 L151.118868,35.3808805 L152.762893,38.3569811 L154.82327,38.3569811 Z M151.696226,33.8110692 L149.81195,33.8110692 L149.81195,31.549434 L151.696226,31.549434 C152.399371,31.549434 152.938994,31.9771069 152.938994,32.667673 C152.938994,33.3833962 152.399371,33.8110692 151.696226,33.8110692 Z M162.030818,38.3569811 L162.030818,36.7871698 L157.887421,36.7871698 L157.887421,34.8789937 L161.944025,34.8789937 L161.944025,33.3091824 L157.887421,33.3091824 L157.887421,31.549434 L162.030818,31.549434 L162.030818,29.9796226 L156.103774,29.9796226 L156.103774,38.3569811 L162.030818,38.3569811 Z" id="Fill-4" fill="#FFFFFF"></path>
                    <path d="M35.414717,18.2859119 C34.5166038,19.4368553 32.9681761,20.3286792 31.4725786,20.2821384 C31.1996226,18.7978616 31.9015094,17.2720755 32.750566,16.2431447 C33.6851572,15.1098113 35.2889308,14.2393711 36.66,14.1450314 C36.8901887,15.694717 36.2537107,17.2116981 35.414717,18.2859119 M42.8260377,32.8594969 C42.2260377,34.1877987 41.9379874,34.7802516 41.1644025,35.9538365 C40.0851572,37.5928302 38.5644025,39.6318239 36.6801258,39.649434 C35.0046541,39.6645283 34.5757233,38.5613836 32.3027673,38.5752201 C30.0310692,38.5877987 29.5555975,39.6683019 27.8813836,39.6532075 C25.9971069,39.6368553 24.5555975,37.7940881 23.4763522,36.1563522 C20.4587421,31.5739623 20.1430189,26.1966038 22.0046541,23.3387421 C23.3266667,21.3072956 25.4122013,20.1186164 27.3744654,20.1186164 C29.3719497,20.1186164 30.6285535,21.2104403 32.2788679,21.2104403 C33.8813836,21.2104403 34.8574843,20.1161006 37.1669182,20.1161006 C38.9115723,20.1161006 40.7618868,21.0657862 42.0801258,22.7047799 C37.7618868,25.0645283 38.4625157,31.2142138 42.8260377,32.8594969" id="apple-logo" fill="#FFFFFF"></path>
                </g>
            </g>
        </g>
    </g>
</svg>