<?xml version="1.0" encoding="UTF-8"?>
<svg width="17px" height="10px" viewBox="0 0 17 10" version="1.1" xmlns="http://www.w3.org/2000/svg" xmlns:xlink="http://www.w3.org/1999/xlink">
    <!-- Generator: sketchtool 52.6 (67491) - http://www.bohemiancoding.com/sketch -->
    <title>282D32AF-19F8-4659-A49B-6CA983615B6C</title>
    <desc>Created with sketchtool.</desc>
    <g id="Page-1" stroke="none" stroke-width="1" fill="none" fill-rule="evenodd" stroke-linecap="round" stroke-opacity="0.5">
        <g id="Qareeb-Web-store-Landing-Page" transform="translate(-898.000000, -536.000000)" stroke="#5D7686" stroke-width="2">
            <g id="select-area" transform="translate(626.000000, 504.000000)">
                <g id="arrows-copy" transform="translate(273.016857, 33.000000)">
                    <g id="down-arrow">
                        <polyline transform="translate(7.188950, 3.837993) rotate(-180.000000) translate(-7.188950, -3.837993) " points="0.82395 7.05885001 7.26566398 0.617136029 13.5539495 6.90542159"></polyline>
                    </g>
                </g>
            </g>
        </g>
    </g>
</svg>