<?xml version="1.0" encoding="UTF-8"?>
<svg width="52px" height="66px" viewBox="0 0 52 66" version="1.1" xmlns="http://www.w3.org/2000/svg" xmlns:xlink="http://www.w3.org/1999/xlink">
    <!-- Generator: sketchtool 49.3 (51167) - http://www.bohemiancoding.com/sketch -->
    <title>785F0908-53A1-420E-B26F-233B800B8398</title>
    <desc>Created with sketchtool.</desc>
    <defs></defs>
    <g id="Page-1" stroke="none" stroke-width="1" fill="none" fill-rule="evenodd">
        <g id="Qareeb-Landing-Page" transform="translate(-1020.000000, -1380.000000)" fill="#69489D">
            <g id="shopping-bag" transform="translate(1021.009766, 1381.261719)">
                <path d="M30.7059113,31.3158867 L22.4600985,39.5616995 L19.2894089,36.3908867 C18.5683498,35.6697044 17.3990148,35.6697044 16.6778325,36.3908867 C15.9566502,37.112069 15.9566502,38.2812808 16.6778325,39.0024631 L21.1543103,43.4789409 C21.5149015,43.839532 21.9874384,44.0199507 22.4599754,44.0199507 C22.9325123,44.0199507 23.4052956,43.8396552 23.7657635,43.4789409 L33.3172414,33.9274631 C34.0384236,33.2062808 34.0384236,32.037069 33.3172414,31.3158867 C32.5963054,30.5947044 31.4269704,30.5947044 30.7059113,31.3158867 M44.5511084,57.2543103 C43.2928571,58.6126847 41.5801724,59.3608374 39.7284483,59.3608374 L10.2666256,59.3608374 C8.41490148,59.3608374 6.7023399,58.6126847 5.44396552,57.2543103 C4.18583744,55.8956897 3.57068966,54.1307882 3.71206897,52.2894089 L6.52857143,16.7974138 C6.55714286,16.4240148 6.8729064,16.1316502 7.24741379,16.1316502 L12.8092365,16.1316502 L12.8092365,20.6802956 C12.8092365,21.7001232 13.6360837,22.5269704 14.6559113,22.5269704 C15.6758621,22.5269704 16.5025862,21.7001232 16.5025862,20.6802956 L16.5025862,16.1316502 L33.4924877,16.1316502 L33.4924877,20.6802956 C33.4924877,21.7001232 34.319335,22.5269704 35.3391626,22.5269704 C36.3589901,22.5269704 37.1858374,21.7001232 37.1858374,20.6802956 L37.1858374,16.1316502 L42.7477833,16.1316502 C43.1221675,16.1316502 43.437931,16.4241379 43.4669951,16.8023399 L46.2830049,52.2844828 C46.4245074,54.1307882 45.8094828,55.8956897 44.5511084,57.2543103 Z M16.5025862,12.1883005 C16.5025862,7.50418719 20.3135468,3.69334975 24.9975369,3.69334975 C29.6816502,3.69334975 33.4924877,7.50431034 33.4924877,12.1883005 L33.4924877,12.4383005 L16.5025862,12.4383005 L16.5025862,12.1883005 Z M49.9651478,51.9972906 L47.1491379,16.5150246 C46.9737685,14.229064 45.0403941,12.4383005 42.7477833,12.4383005 L37.1858374,12.4383005 L37.1858374,12.1883005 C37.1858374,5.46761084 31.7182266,0 24.9975369,0 C18.2769704,0 12.8092365,5.46761084 12.8092365,12.1883005 L12.8092365,12.4383005 L7.24741379,12.4383005 C4.95480296,12.4383005 3.02142857,14.2289409 2.84642857,16.5102217 L0.0298029557,52.0020936 C-0.18817734,54.8438424 0.797660099,57.6730296 2.73435961,59.7639163 C4.67093596,61.854803 7.41650246,63.0541872 10.2665025,63.0541872 L39.7284483,63.0541872 C42.5785714,63.0541872 45.3240148,61.8549261 47.2608374,59.7639163 C49.1976601,57.6729064 50.1833744,54.8438424 49.9651478,51.9972906 Z"></path>
            </g>
        </g>
    </g>
</svg>