<?xml version="1.0" encoding="UTF-8"?>
<svg width="21px" height="21px" viewBox="0 0 21 21" version="1.1" xmlns="http://www.w3.org/2000/svg" xmlns:xlink="http://www.w3.org/1999/xlink">
    <!-- Generator: sketchtool 52.6 (67491) - http://www.bohemiancoding.com/sketch -->
    <title>F75A8B8C-953C-4083-ABEB-89346A186914</title>
    <desc>Created with sketchtool.</desc>
    <g id="Page-1" stroke="none" stroke-width="1" fill="none" fill-rule="evenodd" fill-opacity="0.5">
        <g id="LOG-IN" transform="translate(-932.000000, -310.000000)" fill="#5D7686">
            <g id="close" transform="translate(925.000000, 303.000000)">
                <g id="X">
                    <path d="M16.4974672,16.4228115 L16.4974672,6.14619759 C16.4974672,5.57915111 16.9575558,5.1190625 17.5246023,5.1190625 C18.0916488,5.1190625 18.5517374,5.57915111 18.5517374,6.14619759 L18.5517374,16.4228115 L28.8269931,16.4228115 C29.3957373,16.4228115 29.8558259,16.8829001 29.8558259,17.4499466 C29.8558259,18.016993 29.3957373,18.4770816 28.8269931,18.4770816 L18.5517374,18.4770816 L18.5517374,28.753356 C18.5517374,29.3204025 18.0916488,29.7804911 17.5246023,29.7804911 C16.9575558,29.7804911 16.4974672,29.3204025 16.4974672,28.753356 L16.4974672,18.4770816 L6.22153241,18.4770816 C5.65448593,18.4770816 5.19439732,18.016993 5.19439732,17.4499466 C5.19439732,16.8829001 5.65448593,16.4228115 6.22153241,16.4228115 L16.4974672,16.4228115 Z" transform="translate(17.525112, 17.449777) rotate(-45.000000) translate(-17.525112, -17.449777) "></path>
                </g>
            </g>
        </g>
    </g>
</svg>